>>> np.median(t_add)
3.645000000006976e-07
>>> np.min(t_add)
3.379999999990335e-07
>>> np.max(t_add)
2.498999999999557e-06
>>> np.median(t_mul)
3.394999999999787e-07
>>> np.min(t_mul)
3.2100000000104267e-07
>>> np.max(t_mul)
2.5179999999999647e-06

